Role	T1	T2	T3	T4	T5	T6	T7	T8	T9	T10	T11	T12	T13	T14	T15	T16	T17	T18	T19	T20	T21	T22	T23	T24	T25	T26	T27	T28	T29	T30	T31	T32	T33	T34	T35	T36	T37	T38
Testing	4	5	4	4	4	3	2	4	3	3	4	4	4	3	3	4	4	4	5	5	4	4	3	4	5	5	3	3	4	4	4	4	4	4	4	4	4	4
Development	5	4	4	4	3	4	2	5	4	2	3	4	3	4	4	5	4	3	3	4	3	4	3	5	3	4	5	4	3	3	3	3	4	4	4	5	4	4
Development	5	5	5	4	5	5	5	5	5	5	5	5	5	5	5	4	4	5	4	4	5	4	4	5	4	4	5	5	5	5	4	4	5	5	4	4	5	4
Development	4	5	5	3	5	3	3	5	5	5	5	5	5	5	4	3	5	4	5	5	5	4	5	4	5	4	4	5	3	4	5	5	5	4	5	4	5	5
Development	4	4	4	4	4	3	3	4	4	4	4	4	4	4	4	4	4	4	4	4	4	4	4	4	4	4	4	4	4	4	4	4	4	4	4	4	4	4
Testing	5	5	5	5	5	4	4	4	4	5	5	4	4	4	4	4	4	4	4	4	4	5	5	4	4	4	4	4	4	5	5	4	5	5	4	4	4	5
Testing	4	5	4	4	3	2	2	5	4	4	4	5	5	4	4	4	5	4	5	3	2	3	4	4	4	4	4	4	4	4	3	4	5	4	4	4	4	4
Management	3	5	5	5	5	2	3	4	4	4	5	4	3	5	4	4	5	5	4	4	4	4	5	5	4	3	2	3	4	4	5	4	5	5	5	5	5	4
Development	3	3	3	5	5	5	2	5	4	5	5	5	5	5	5	5	4	4	4	4	3	4	4	4	4	4	5	5	5	5	5	4	4	4	3	3	4	5
Development	4	5	4	2	4	3	3	3	3	4	3	3	4	4	4	3	3	3	2	3	4	3	2	2	2	4	4	3	3	4	4	5	4	4	5	5	4	5
Development	4	5	3	4	5	3	2	4	4	4	4	4	4	5	5	4	5	4	4	5	5	5	4	5	5	4	4	5	5	5	5	5	5	4	5	5	3	4
Development	5	5	5	5	3	4	3	5	3	5	5	4	5	5	5	5	5	5	5	5	5	5	4	5	4	4	5	3	5	5	5	4	5	4	4	4	5	5
Management	3	5	5	3	4	2	1	4	3	4	4	5	4	4	4	5	5	4	4	4	5	3	4	4	4	4	4	3	4	5	5	4	5	5	4	4	5	4
Development	4	5	5	3	5	3	4	5	3	4	4	5	4	3	3	4	3	5	5	4	3	4	5	3	4	4	2	3	2	3	3	4	5	5	5	5	5	4
Development	5	5	5	3	5	3	4	3	4	4	4	4	4	4	4	4	4	4	4	4	4	4	4	4	4	4	4	4	4	4	4	5	4	4	4	4	4	4
Development	4	1	4	4	4	4	3	3	3	4	4	4	3	4	3	1	4	4	4	4	4	4	3	4	1	4	3	3	3	3	3	3	4	4	4	4	1	1
Development	5	5	3	3	5	3	3	4	3	4	4	4	4	4	3	5	5	5	5	4	5	5	4	4	5	5	3	3	4	5	4	4	5	4	4	4	5	5
Development	4	4	4	4	4	4	3	4	4	4	4	4	4	4	4	4	4	4	4	4	4	4	4	4	4	4	4	4	4	4	4	4	4	4	4	4	4	4
Testing	4	5	3	3	4	4	3	5	3	4	4	5	5	3	4	4	4	4	4	3	3	5	5	4	4	4	3	4	4	4	4	4	5	4	4	4	5	5
Development	4	5	4	3	3	1	1	1	3	4	5	3	3	5	3	5	5	5	5	3	3	3	4	4	4	4	1	1	3	5	5	4	5	4	4	4	4	4
Development	3	5	4	4	4	3	3	4	4	4	4	4	4	4	4	5	4	5	4	4	4	4	4	4	4	4	4	4	4	5	4	4	5	5	5	5	4	4
Development	4	4	3	3	4	3	3	2	3	3	3	4	4	4	5	5	4	4	4	4	3	4	4	4	4	4	2	4	3	4	3	3	5	4	4	4	4	4
Testing	5	4	3	4	4	3	2	5	4	4	4	3	3	3	3	4	4	4	3	4	3	4	4	3	4	4	4	4	2	4	4	4	5	5	5	5	5	5
Development	4	4	4	3	5	2	1	4	2	4	4	5	4	4	4	5	5	4	4	3	4	4	3	3	4	4	3	3	4	5	3	3	4	4	3	3	5	3
Testing	3	4	4	5	3	4	2	3	4	4	4	5	5	4	4	5	5	3	4	4	4	4	4	3	4	4	3	3	4	4	4	3	4	4	4	4	3	4
Development	3	4	5	4	5	2	3	5	4	4	4	4	3	5	3	5	4	5	5	4	4	3	4	4	3	4	4	4	4	5	4	3	4	4	4	3	5	5
Development	4	4	3	2	4	4	3	3	3	4	5	5	5	5	4	4	4	4	4	3	4	4	4	4	3	4	3	3	3	4	4	4	4	4	4	3	4	4
Development	5	4	5	4	5	4	2	4	3	4	5	5	4	3	4	5	5	5	5	5	5	4	4	5	5	5	4	4	5	5	5	4	5	4	4	4	4	4
Development	5	4	4	4	5	3	2	4	3	4	3	5	5	4	5	5	4	4	4	5	3	5	4	5	3	5	2	4	2	5	2	3	5	5	5	5	4	3
Testing	4	4	4	4	5	3	3	4	5	4	5	3	4	4	4	4	5	3	3	3	4	3	4	3	3	3	3	3	3	3	3	3	4	5	4	3	4	4
Development	4	5	3	4	5	4	2	5	4	5	4	5	5	4	4	4	3	5	4	4	3	3	4	4	5	4	4	3	4	4	2	4	4	3	3	3	4	4
Development	5	4	4	5	5	5	3	5	5	5	5	4	4	5	5	5	5	5	5	5	3	5	5	5	5	5	5	5	5	5	4	3	5	5	5	5	5	5
Development	5	4	5	4	5	1	1	4	3	5	4	5	5	3	3	5	5	5	5	3	1	5	5	5	5	5	1	4	5	4	4	4	4	5	5	5	4	4
Development	4	5	4	5	4	4	2	4	3	4	4	4	4	4	3	5	4	4	4	4	4	4	4	4	4	4	3	3	4	3	4	4	4	4	3	3	4	4
Management	5	5	4	4	5	4	3	5	4	4	5	5	5	4	4	5	5	5	4	4	4	5	5	5	5	5	5	4	4	5	5	4	5	4	4	4	4	4
Development	3	5	4	4	5	4	3	4	3	5	5	4	5	5	5	5	5	5	5	4	4	4	4	5	5	4	4	3	4	5	3	4	4	4	4	4	5	5
Development	4	3	2	3	4	2	2	3	3	5	5	5	5	5	4	4	5	4	5	2	2	4	4	4	4	4	1	1	4	4	3	4	4	5	4	4	4	4
Development	3	5	4	5	5	2	2	3	3	2	4	2	4	4	4	4	5	5	4	4	5	2	4	5	5	4	4	4	4	5	4	3	4	3	3	3	4	5
Development	5	5	4	4	4	5	3	4	4	5	4	5	5	4	4	5	5	4	5	4	5	5	4	5	4	4	4	4	5	5	4	3	5	4	4	4	5	5
Testing	4	5	5	4	4	3	3	2	4	5	4	4	4	4	4	4	4	4	4	4	3	4	4	4	4	4	3	4	4	4	4	4	4	5	5	5	4	4
Development	3	4	5	4	4	2	2	2	2	4	4	4	4	4	5	4	4	3	4	4	4	3	4	3	4	3	3	3	4	4	4	4	4	4	4	4	4	4
Development	5	5	5	5	5	5	4	4	4	5	4	4	5	5	5	4	4	5	5	5	5	5	5	4	4	5	5	5	4	4	5	5	5	5	4	5	5	5
Development	3	2	5	3	5	3	3	4	4	3	5	5	5	4	5	5	4	5	5	3	3	3	5	3	5	5	3	4	4	3	4	4	4	5	5	5	5	5
Development	4	4	5	4	4	3	3	3	3	4	4	4	4	4	4	5	5	4	4	5	4	4	4	5	5	5	4	4	5	5	3	3	4	5	4	4	4	4
Development	2	4	4	4	3	4	2	3	3	3	3	3	4	4	2	3	3	4	4	3	3	4	4	5	4	4	2	2	2	4	4	4	4	3	3	3	3	4
Development	3	4	4	3	5	3	3	2	3	3	4	4	4	3	4	4	4	5	4	4	4	5	5	3	4	4	4	4	5	5	5	3	4	3	3	3	4	4
Development	5	5	4	3	4	4	2	3	3	4	3	4	4	4	4	4	4	4	4	4	4	4	4	4	5	4	4	5	3	4	3	3	4	4	4	4	4	4
Development	4	5	4	3	3	4	3	4	4	3	5	4	4	3	4	4	4	4	4	4	4	3	3	4	3	4	3	4	4	3	3	3	4	5	4	4	4	3
Development	4	4	5	4	5	4	3	4	4	3	4	4	4	5	5	4	4	5	4	4	4	4	4	5	5	5	5	5	5	5	5	4	5	4	4	5	5	4
Development	5	4	4	3	5	4	2	5	3	5	4	4	4	3	2	5	5	4	4	3	3	4	3	3	4	4	4	3	5	5	5	3	5	4	4	4	5	5
Testing	3	4	5	5	5	2	2	4	5	4	4	4	4	5	4	5	4	4	4	5	4	4	4	4	4	4	5	5	5	5	5	5	5	5	5	5	3	4
Development	4	4	5	3	5	4	4	4	3	4	5	4	4	3	3	5	5	4	5	4	3	4	3	5	5	5	3	3	3	4	3	3	3	3	3	3	3	4
Testing	5	5	5	5	5	5	5	5	5	5	5	5	5	5	5	5	5	5	5	5	5	5	5	5	5	5	5	5	5	5	5	5	5	5	5	5	5	5
Development	4	4	5	4	5	5	2	4	4	4	4	4	4	4	4	4	4	4	4	4	4	4	4	4	4	4	4	4	4	4	4	4	4	4	4	4	5	5
Development	4	4	5	4	4	3	2	5	3	4	4	5	4	4	5	5	4	5	4	4	4	4	4	5	5	5	5	4	3	5	5	5	5	5	5	5	3	4
Development	4	4	4	4	4	4	2	4	3	4	4	4	4	4	4	4	4	4	4	4	4	4	4	4	4	4	4	4	4	4	3	4	4	4	4	4	4	4
Testing	5	5	5	5	5	5	5	5	5	5	5	5	5	5	5	5	5	5	5	5	5	5	5	5	5	5	5	5	5	5	5	5	5	5	5	5	5	5
Testing	4	5	4	5	5	4	5	5	5	5	5	4	5	4	4	5	5	5	4	5	5	4	5	5	4	5	5	5	5	5	5	5	4	4	5	4	3	4
Development	5	5	4	4	5	4	3	5	5	5	5	5	5	5	4	5	4	4	5	4	4	5	5	5	4	4	4	5	4	4	5	4	5	5	4	4	4	5
Development	3	4	4	4	4	3	3	5	4	4	4	4	4	4	4	5	4	5	4	4	4	5	4	5	4	3	4	4	4	5	4	4	4	4	4	3	4	4
Development	5	5	3	4	4	4	2	3	3	4	4	3	4	4	4	4	4	4	4	3	3	4	3	4	4	4	3	3	4	4	3	3	4	3	3	3	3	3
Development	4	4	3	3	3	3	3	3	3	3	3	4	3	3	3	4	4	3	4	4	3	4	4	3	4	4	4	4	3	4	3	3	4	3	3	4	3	4
Development	4	5	3	3	4	3	2	4	3	4	4	4	3	3	3	3	3	4	3	3	4	3	3	4	5	3	3	3	4	4	4	4	4	3	4	4	3	3
Development	4	4	4	4	5	4	2	4	4	4	5	5	5	5	4	5	5	5	5	4	4	4	4	5	5	4	4	4	4	4	4	4	5	4	4	3	5	4
Development	4	4	5	3	4	4	3	4	3	4	4	4	4	4	4	4	4	4	4	4	4	4	4	4	4	4	3	4	4	4	4	4	5	4	4	4	5	5
Development	5	4	4	4	4	4	3	5	3	4	4	4	5	5	4	5	5	5	4	3	4	5	4	4	4	4	4	4	5	5	4	4	5	4	4	4	5	5
Development	2	5	2	4	4	4	2	4	4	4	5	4	4	5	4	4	4	5	5	4	4	4	4	5	5	4	4	2	4	4	5	4	4	4	4	4	5	5
Development	5	4	3	4	4	4	3	4	3	4	4	5	4	5	3	5	4	4	5	4	4	4	4	3	5	5	4	4	3	4	4	4	4	3	3	3	5	5
Development	5	5	4	5	5	4	3	5	4	5	5	4	4	4	4	5	5	5	5	4	3	5	3	5	5	5	4	4	5	5	5	3	5	4	3	3	5	4
Development	4	3	3	3	5	2	2	4	3	5	5	5	4	4	5	5	5	4	5	3	4	5	5	4	4	4	3	3	4	5	4	3	5	4	4	4	5	5
Development	5	4	3	3	3	2	2	4	3	4	4	4	4	4	5	5	5	5	5	5	5	4	3	3	4	4	3	3	3	4	4	3	4	3	3	3	4	4
Development	4	3	3	2	4	3	1	4	3	4	3	4	4	5	4	4	5	5	4	3	5	5	3	4	4	4	3	4	4	4	3	3	5	3	3	3	5	5
Development	5	4	4	4	5	3	2	3	3	5	4	5	4	4	2	5	4	5	5	4	3	5	4	4	4	4	4	2	4	5	3	5	5	5	5	5	4	5
Development	5	5	4	5	5	3	3	3	3	4	4	4	4	4	3	4	4	4	4	4	3	4	4	4	5	5	4	3	4	4	3	4	4	4	4	4	5	4
Management	3	2	2	3	2	2	1	4	3	5	4	4	4	5	4	5	4	4	4	3	5	4	3	4	4	4	4	3	3	5	4	4	4	4	4	3	4	4
Management	4	5	2	4	4	3	2	3	3	3	4	4	4	4	5	5	4	4	4	3	2	4	4	4	3	3	3	3	3	2	3	3	5	4	4	3	3	3
Development	3	4	4	4	5	2	2	4	4	4	4	4	4	4	4	4	4	4	4	4	4	4	4	4	4	4	3	4	4	3	3	4	4	4	4	4	4	4
Management	5	5	4	4	4	4	2	5	4	4	4	4	5	5	4	5	5	5	5	5	4	5	5	5	5	5	4	4	5	5	4	4	5	4	4	4	5	5
Management	4	5	4	4	5	4	3	4	5	4	4	4	4	4	4	4	4	5	5	4	4	4	5	4	5	5	4	5	4	4	4	4	4	4	4	4	5	5
Development	4	5	3	4	4	4	3	3	4	4	4	5	4	4	4	4	4	4	5	4	4	4	3	4	4	4	4	4	5	3	3	4	4	5	5	5	5	5
Development	5	4	3	4	4	3	2	4	3	4	4	4	4	4	4	5	4	4	4	4	3	4	3	4	4	4	4	2	3	4	3	3	4	3	3	3	5	4
Development	4	4	4	4	4	4	3	3	3	4	4	4	4	4	4	4	4	4	4	4	4	4	4	4	4	4	4	4	4	4	4	4	4	4	4	4	4	4
Development	5	5	5	5	5	2	2	3	3	5	4	4	4	4	4	4	4	4	4	4	4	4	4	4	4	4	5	4	5	4	4	4	4	3	4	5	4	4
Development	4	5	5	4	4	4	4	4	4	4	5	4	4	4	4	4	5	5	4	4	4	5	5	5	4	4	4	4	4	4	4	4	4	4	4	4	5	4
Development	5	5	3	4	4	4	3	5	3	5	4	5	5	3	4	5	4	4	4	4	4	4	4	4	5	4	4	4	4	4	4	4	5	4	4	4	4	4
Development	4	5	4	4	5	3	2	3	4	4	4	4	4	4	4	4	4	4	4	5	3	5	4	4	4	5	5	5	5	5	5	5	5	5	5	5	4	5
Development	4	5	4	5	5	2	2	3	3	4	4	5	5	5	5	5	5	5	5	5	3	4	4	4	5	4	4	4	4	4	4	4	5	5	4	4	5	5
Development	5	3	2	3	2	4	2	5	3	4	4	4	5	4	2	5	5	5	5	5	5	4	4	4	3	5	5	5	5	5	4	4	5	5	5	5	5	4
Development	3	4	4	3	4	4	2	4	4	4	4	4	4	4	4	4	4	4	4	4	4	4	4	4	4	4	3	4	3	4	3	4	4	4	4	4	4	4
Development	5	5	2	4	4	3	3	4	4	4	3	4	3	3	4	4	4	5	4	3	3	4	3	3	3	2	3	3	3	5	4	3	5	5	5	5	3	3
Development	4	5	3	4	4	4	3	5	3	4	4	3	3	4	5	5	5	5	5	5	5	4	4	4	4	4	3	4	3	4	3	3	5	5	5	5	5	5
Development	4	4	4	4	4	4	3	4	4	4	4	4	4	4	4	4	4	4	4	4	4	4	4	4	4	4	4	4	4	4	4	4	4	4	4	4	4	4
Development	4	5	4	5	4	5	2	4	4	4	4	3	5	4	3	4	4	4	4	3	3	4	4	4	4	4	4	4	4	4	4	3	5	4	4	4	4	4
Development	5	5	5	5	5	4	4	4	4	5	5	4	5	5	2	5	4	5	4	2	2	5	5	5	5	5	3	5	5	5	5	5	5	5	5	5	5	5
Development	4	4	5	3	5	3	5	4	2	5	5	4	4	4	4	4	5	4	4	4	3	3	3	4	3	4	3	4	3	4	4	5	4	5	4	5	4	5
Development	4	5	5	5	3	4	3	5	4	4	4	5	4	4	5	3	5	4	4	5	4	4	4	4	5	5	5	4	3	4	3	3	4	5	5	5	4	5
Testing	4	5	3	3	5	5	3	4	4	5	5	4	4	4	5	5	5	5	5	5	5	5	5	5	5	5	5	4	4	5	5	5	5	5	5	5	5	5
Development	5	5	3	3	4	2	1	2	2	3	4	4	4	4	4	4	2	2	4	2	2	3	3	3	4	5	3	4	4	5	2	2	5	5	3	3	4	3
Development	5	5	4	3	5	4	3	4	3	4	4	4	3	4	4	5	4	4	4	3	3	4	4	4	4	4	4	3	4	4	4	3	4	4	4	4	4	4
Development	3	4	3	4	4	4	2	3	4	4	4	4	4	4	4	4	3	4	4	4	3	3	4	4	3	3	3	3	3	3	3	3	4	4	4	4	3	4
Development	5	5	5	5	5	5	2	5	4	4	4	3	3	4	4	4	4	4	4	4	4	5	5	5	5	5	5	5	5	5	5	5	5	5	5	5	5	5
Development	4	4	4	3	5	3	2	4	4	3	4	4	5	4	3	4	4	4	4	4	3	4	4	3	4	4	3	4	4	4	4	4	4	4	4	4	3	4
Development	4	4	5	4	4	4	3	3	3	4	4	3	4	4	4	4	5	5	5	4	4	4	4	4	4	4	4	4	4	5	4	4	5	5	4	4	4	4
Development	5	5	5	4	4	4	2	4	4	3	4	5	5	4	4	5	4	4	5	5	4	5	5	4	4	5	5	5	5	4	4	4	5	5	3	2	4	2
Development	3	5	5	4	4	4	2	3	3	4	3	4	3	3	3	4	4	4	5	4	3	4	3	4	4	4	3	4	4	4	3	3	4	4	3	3	4	5
Development	4	5	4	4	4	3	3	4	4	4	3	3	4	4	4	4	4	5	4	4	3	5	4	4	4	4	3	3	3	4	3	3	4	4	4	4	3	3
Development	5	4	4	4	4	3	3	3	3	2	3	3	4	5	4	5	5	5	3	3	2	5	4	4	3	4	4	3	2	2	2	2	5	5	3	3	4	3
Testing	4	4	4	5	4	4	2	4	4	4	4	4	4	5	4	4	5	5	5	4	5	5	5	5	4	4	4	3	2	2	2	1	5	4	3	3	4	3
Management	4	4	5	4	4	3	3	3	3	3	3	3	3	3	4	4	4	4	4	4	4	4	4	4	4	4	3	3	4	4	4	4	4	4	4	4	4	4
Development	4	3	2	3	5	5	3	5	4	5	3	4	3	4	3	5	5	4	4	4	3	3	3	4	5	5	4	4	4	4	4	3	4	3	3	3	3	3
Development	4	4	3	4	4	4	3	4	4	4	4	3	4	4	4	4	4	4	4	4	4	4	4	4	4	4	4	4	4	4	3	4	4	4	4	4	4	4
Testing	3	5	3	4	5	4	4	4	4	4	4	4	4	4	4	4	4	4	4	4	4	3	4	4	4	4	3	3	3	4	4	4	4	4	4	4	4	4
Development	4	5	4	4	4	3	2	4	3	3	4	4	4	4	4	5	4	4	4	4	4	3	3	3	3	3	3	3	3	3	3	3	4	3	3	3	4	4
Management	4	5	4	4	4	3	3	4	4	4	4	4	4	3	4	5	4	4	4	4	4	4	4	4	4	4	4	4	4	4	4	4	5	4	4	4	4	4
Development	5	5	4	4	5	3	3	4	4	5	5	4	4	5	4	5	5	5	5	5	5	5	5	3	4	4	4	3	4	4	4	3	4	5	5	5	3	3
Development	5	4	3	4	5	3	3	4	3	4	3	3	4	4	4	5	4	4	4	4	4	4	4	4	3	3	3	4	3	4	4	4	4	3	3	3	4	4
Development	3	4	3	3	5	2	2	4	4	5	4	4	4	5	4	4	5	5	5	5	5	4	5	5	5	5	3	3	4	3	3	3	4	4	4	4	5	5
Development	3	4	5	5	5	4	4	5	5	5	5	5	3	3	5	5	4	4	4	5	5	5	5	5	4	5	3	5	3	5	4	4	4	5	4	4	5	5
Development	4	4	4	4	4	4	3	4	3	4	4	4	4	4	4	4	4	5	4	3	4	4	4	4	4	4	4	4	4	5	4	4	5	5	4	4	4	4
Development	4	4	5	4	5	3	3	4	3	4	4	3	5	4	5	5	5	5	5	4	4	5	4	4	5	5	4	4	4	5	4	5	5	5	3	3	5	5
Development	4	5	4	4	5	5	3	4	3	4	3	4	4	4	4	5	4	4	4	4	4	5	4	4	5	4	4	4	5	4	4	5	5	4	5	4	4	4
Development	5	5	4	5	5	4	4	4	4	5	4	4	4	4	5	4	4	4	4	4	4	4	4	4	5	4	4	4	5	4	4	4	4	5	4	4	4	5
Development	4	5	4	4	5	2	2	2	2	4	4	4	4	5	3	4	5	4	5	4	5	5	4	5	5	5	2	2	3	5	4	4	5	4	4	4	5	5
Development	3	4	4	5	4	2	2	2	1	3	3	4	4	4	3	5	4	3	3	3	3	3	3	4	3	3	3	3	2	3	3	3	5	4	3	3	3	3
Development	5	5	3	3	4	4	2	4	3	3	3	4	4	4	4	5	4	4	4	3	3	5	3	4	4	4	3	4	3	4	4	3	5	4	4	4	5	4
Development	4	4	4	3	4	4	2	4	4	3	3	3	3	3	4	4	4	4	4	3	4	4	4	4	4	4	4	4	4	4	4	4	4	4	4	4	4	4
Development	4	5	4	5	5	3	2	3	4	4	4	4	4	4	3	4	4	5	4	4	4	4	4	4	3	4	4	3	4	4	4	4	5	4	4	5	5	5
Development	4	4	4	4	4	3	3	3	3	4	4	4	4	4	4	4	4	4	4	4	4	5	3	3	3	4	4	3	4	4	4	4	5	5	5	5	5	3
Development	4	4	4	4	4	3	2	4	3	4	4	4	4	4	3	4	4	4	4	4	4	4	4	4	4	4	3	3	3	4	4	4	5	5	2	2	5	2
Development	5	5	5	4	4	5	4	1	4	5	4	5	5	5	5	5	4	4	5	4	5	4	5	4	5	5	5	5	5	5	5	5	5	5	5	5	5	5
Testing	4	4	5	3	4	2	2	3	3	4	4	4	4	4	1	4	4	4	5	3	3	3	4	4	4	4	3	4	4	4	4	4	4	4	2	2	4	5
Testing	4	5	3	3	3	3	3	4	4	4	3	3	3	3	3	4	4	4	4	3	3	4	3	4	4	4	4	4	4	4	3	3	5	4	4	4	4	4
Testing	4	5	5	4	5	2	2	4	4	4	5	5	4	5	4	4	4	5	4	4	4	4	4	4	4	5	3	3	3	3	4	4	4	4	4	4	4	5
Testing	4	5	4	3	4	5	3	3	3	5	5	4	5	4	5	5	4	5	5	5	4	4	5	5	4	5	5	4	5	5	4	5	5	4	5	5	5	5
Development	3	4	3	3	4	2	3	3	3	4	4	4	4	4	4	5	4	4	4	4	4	4	3	4	4	4	4	3	4	5	4	4	4	4	3	3	4	3
Testing	5	4	4	5	4	2	2	5	2	4	4	4	4	4	4	4	4	5	4	4	4	4	4	4	3	4	3	4	3	4	4	4	4	4	4	4	4	3
Development	4	2	3	3	4	4	2	4	2	4	4	4	4	5	5	4	5	5	4	3	4	3	4	4	5	4	3	4	4	4	4	4	4	4	4	4	5	3
Management	4	4	5	3	4	4	2	4	4	4	4	4	4	4	4	4	3	4	3	4	4	4	4	4	4	4	4	4	5	4	4	4	4	4	4	4	4	4
Management	3	4	4	4	4	2	2	4	3	4	4	4	4	4	4	4	4	3	4	3	3	4	4	4	4	4	3	3	4	4	3	3	4	4	3	3	4	4
Development	3	5	5	4	5	3	2	4	4	4	4	4	4	5	4	4	4	4	4	3	4	4	4	4	3	3	3	4	4	4	3	4	4	4	3	4	4	4
Development	1	1	1	1	1	5	5	5	5	5	5	5	5	5	5	5	5	5	5	5	5	5	5	5	5	5	5	5	5	5	5	5	4	4	5	5	5	5
Development	5	5	1	3	3	2	1	4	4	3	3	2	5	5	1	5	5	3	5	5	5	4	4	3	5	4	1	1	4	5	3	4	5	3	3	5	4	4
Management	3	4	4	3	4	2	2	3	3	4	4	4	4	4	4	5	4	3	4	4	3	4	3	4	4	4	3	4	4	4	3	3	4	4	3	2	4	4
Development	4	4	3	3	4	4	3	4	3	4	4	4	4	4	4	4	4	4	4	4	3	4	4	4	4	3	3	3	4	4	3	3	4	4	4	4	4	4
Testing	5	5	5	5	5	4	4	4	4	4	5	4	4	5	4	5	4	4	4	4	3	4	4	4	4	4	4	4	3	4	4	4	4	4	4	3	4	4
Testing	4	5	5	4	4	4	2	4	4	3	3	4	3	3	3	4	4	4	4	3	2	3	3	4	3	4	4	4	4	4	4	4	4	3	3	3	3	3
Testing	5	3	3	3	5	3	3	3	4	3	5	3	3	5	4	5	5	5	5	5	3	5	3	3	3	3	4	4	4	4	4	4	4	4	3	3	4	3
Testing	5	4	4	4	5	4	3	4	3	4	4	4	5	4	4	4	4	4	5	3	4	4	4	3	4	3	4	4	4	4	4	4	5	5	5	5	5	4
Development	4	5	3	4	4	3	3	4	4	5	4	4	4	5	4	5	4	4	4	4	4	4	4	4	4	4	3	4	4	4	4	4	4	3	3	3	4	4
Development	4	4	3	4	4	3	2	3	3	3	3	3	4	3	3	4	3	3	4	4	3	3	4	4	3	3	3	3	3	4	4	3	4	4	3	3	4	4
Development	4	4	5	3	4	4	2	5	4	4	4	4	4	4	4	4	4	4	4	4	4	4	3	4	4	3	3	3	4	4	3	3	5	4	4	4	5	5
Testing	5	4	4	4	5	3	3	5	4	4	4	4	4	4	4	5	5	4	4	4	4	4	4	5	5	4	4	4	4	5	4	4	5	5	5	5	5	4
Development	4	4	4	3	5	3	3	3	3	4	4	4	5	4	4	4	4	4	4	4	4	4	4	4	4	4	4	4	4	4	3	3	4	4	4	4	4	4
Testing	4	4	4	5	5	4	3	4	5	4	5	5	5	4	5	5	5	5	5	4	5	4	4	5	5	5	5	5	5	4	4	4	4	4	4	4	4	4
Development	3	3	3	3	4	2	2	3	3	3	2	3	3	3	3	5	4	4	4	3	3	4	3	5	4	4	3	3	3	3	4	3	5	4	3	3	4	4
Testing	4	5	4	4	4	4	3	5	4	5	5	5	5	4	5	4	4	5	5	4	5	4	4	4	4	4	4	5	5	5	5	5	4	4	4	4	4	4
Development	4	4	4	3	5	3	3	3	3	4	4	4	5	4	4	4	4	4	4	4	4	4	4	4	4	4	4	4	4	4	3	3	4	4	4	4	4	4
Development	5	4	4	4	4	4	3	4	4	4	4	3	4	4	3	4	3	4	4	3	3	4	3	4	3	4	3	3	3	4	3	3	4	4	3	3	4	3
Development	5	4	4	4	5	3	3	4	3	4	4	5	4	4	4	4	4	4	4	3	4	4	4	4	4	4	3	3	4	4	4	4	4	4	4	4	4	4
Development	4	5	5	5	5	4	4	5	5	5	5	5	5	5	5	5	5	5	5	4	3	5	5	5	5	5	4	4	5	5	5	4	5	5	5	5	5	5
Development	5	4	4	4	5	3	3	3	3	4	5	5	5	4	4	5	5	5	5	5	5	5	4	5	5	5	3	3	4	5	3	4	5	4	4	4	5	4
Testing	3	5	5	4	5	4	3	5	5	5	5	5	5	5	5	5	5	5	5	5	5	5	5	5	5	5	5	5	5	5	5	5	5	5	5	5	4	5
Testing	4	4	4	4	4	4	4	4	4	5	5	5	5	5	5	5	5	5	5	5	5	4	4	4	4	4	5	5	5	5	5	5	5	5	5	5	5	5
Development	4	5	5	5	5	4	3	4	4	4	5	5	5	5	4	4	4	4	5	5	4	4	4	4	4	4	4	4	4	4	4	4	4	4	4	4	4	5
Testing	3	4	3	4	5	4	3	5	4	5	4	3	5	4	4	4	5	5	5	5	5	5	5	4	4	5	4	5	3	3	4	3	4	4	4	3	4	3
Development	5	5	5	3	5	5	3	5	5	5	5	5	5	5	5	5	5	5	5	5	5	5	5	5	5	5	5	5	5	5	5	5	5	5	5	5	5	5
Development	5	5	5	5	5	4	2	5	5	3	5	5	5	5	5	5	5	5	5	5	5	5	5	5	5	5	5	5	5	5	5	5	5	5	5	5	4	4
Development	3	4	4	3	4	3	3	3	4	4	4	4	4	4	4	4	4	4	4	4	4	3	4	4	4	4	3	3	3	3	3	3	3	3	3	4	4	4
Development	3	4	4	3	5	3	2	4	3	4	3	5	5	3	4	5	4	4	4	3	3	4	3	4	4	4	4	4	3	4	4	2	4	3	3	3	4	4
Development	3	4	5	4	5	4	3	3	3	5	5	4	4	5	4	5	4	5	5	4	4	5	5	2	4	3	2	4	4	5	3	3	4	4	4	4	4	4
Development	4	4	3	2	2	2	1	1	1	4	4	3	2	3	4	5	4	4	4	2	3	3	3	2	2	2	1	1	2	5	3	2	4	3	4	3	3	3
Testing	2	5	5	4	3	3	2	3	3	5	5	5	5	4	2	4	3	4	4	4	5	3	4	3	3	4	2	4	5	5	4	4	3	5	5	5	2	4
Development	4	3	5	4	5	3	2	4	3	4	4	4	4	4	3	4	4	5	4	4	3	5	4	5	4	5	3	4	4	4	2	4	5	5	5	5	4	4
Development	5	5	4	5	5	4	2	3	4	5	5	4	4	5	2	5	4	5	5	1	3	4	5	5	5	5	1	3	3	5	2	2	5	3	3	3	3	5
Development	5	5	4	3	4	5	2	3	3	4	4	4	5	5	4	5	5	5	5	4	4	4	5	4	5	4	2	3	5	5	5	4	5	5	4	5	4	5
Development	3	4	5	4	5	4	2	3	3	5	5	4	5	5	3	4	4	5	4	4	4	5	4	4	4	5	2	4	4	5	4	4	4	4	5	4	4	4
Development	4	5	5	5	5	4	3	4	3	5	3	5	5	4	3	4	5	3	5	3	5	3	4	3	3	4	3	5	4	5	4	4	4	5	4	3	3	5
Development	4	5	4	5	5	4	3	3	3	4	5	5	5	5	3	4	5	5	5	5	5	5	5	5	5	5	3	4	4	5	5	5	5	5	5	5	4	5
Management	2	2	5	2	5	5	5	5	3	5	5	3	5	3	1	1	1	5	5	1	1	5	5	5	5	5	1	5	5	5	3	3	5	3	5	5	1	1
Development	4	4	4	2	4	3	2	3	2	4	4	5	5	4	3	5	5	5	4	3	4	4	5	4	4	3	2	3	2	4	5	5	4	5	5	3	3	1
Development	5	4	5	2	5	3	1	1	1	5	4	5	5	5	2	5	5	5	5	4	4	5	4	4	4	4	2	2	2	4	2	2	4	4	4	4	4	4
Development	5	4	5	2	5	5	2	2	2	4	3	4	5	5	3	5	5	4	3	4	4	4	4	4	4	3	2	3	2	5	4	3	5	4	4	4	4	4
Development	5	4	5	3	5	3	1	5	3	5	5	5	5	5	3	5	5	5	5	5	5	5	4	4	4	4	4	4	4	5	5	5	5	5	5	5	4	3
Development	2	4	2	5	5	5	1	3	3	5	5	5	5	5	1	1	5	5	5	3	5	5	5	4	5	5	1	1	5	5	1	2	4	4	4	4	1	5
Development	4	3	4	3	5	5	3	3	3	5	5	4	5	4	3	4	4	5	5	4	4	5	4	5	5	5	3	4	5	5	5	3	3	5	4	4	4	2
Development	5	5	4	4	5	5	1	2	1	5	5	5	5	3	2	4	4	5	5	2	2	3	3	5	4	3	2	2	4	5	3	3	3	3	3	3	2	4
Management	3	4	5	4	5	4	2	3	3	4	5	5	5	4	3	4	5	5	5	4	4	4	4	5	4	4	4	5	3	5	4	4	4	4	4	3	3	3
Development	4	3	4	2	4	4	2	4	3	4	4	4	5	5	3	3	4	4	4	3	4	5	5	4	5	5	3	3	4	5	3	4	4	4	4	4	4	4
Development	3	3	5	2	5	3	3	3	2	4	3	4	4	5	2	5	4	4	4	2	2	4	4	2	2	2	1	1	1	4	4	3	4	4	4	4	2	4
Development	3	4	5	3	5	2	1	2	3	5	4	5	5	4	3	5	5	3	4	4	4	4	2	5	3	3	1	2	3	5	2	2	4	4	4	3	2	3
Development	4	4	5	4	5	4	1	3	2	4	5	3	5	5	3	3	4	5	5	4	5	3	5	4	4	2	1	4	4	5	2	2	4	4	5	3	4	3
Development	3	5	4	4	5	5	3	3	3	4	4	4	4	5	3	4	4	5	4	4	5	5	3	4	4	4	3	3	3	5	5	5	4	4	4	4	3	3
Development	5	5	5	3	4	5	3	5	5	4	4	4	4	4	5	5	5	5	5	4	4	4	4	4	4	4	5	5	4	4	4	4	5	5	5	5	5	5
Development	5	5	5	3	3	4	2	2	3	4	5	4	4	5	4	4	4	5	4	4	4	3	4	3	4	3	3	4	4	5	5	4	3	4	4	4	4	4
Management	5	2	4	1	5	2	2	2	2	4	4	5	5	4	3	5	4	5	4	4	4	4	4	3	3	3	3	2	3	5	3	3	4	5	5	5	4	3
Development	4	4	4	4	5	5	3	4	3	4	4	5	5	5	3	4	4	5	5	4	5	5	5	4	5	5	3	4	4	5	3	3	4	4	4	4	4	4
Development	3	4	4	4	4	4	1	2	2	4	4	3	3	4	4	4	4	4	4	3	4	3	4	4	3	3	2	2	4	4	3	3	4	4	4	4	3	4
Development	4	5	3	4	4	1	2	4	4	5	5	4	3	4	3	4	4	4	3	2	1	2	4	4	4	5	1	2	2	4	4	3	4	2	4	4	4	5
Development	5	5	4	3	5	2	2	4	3	4	3	4	5	4	3	5	5	5	4	4	4	3	4	4	4	4	3	3	3	5	5	5	4	5	5	4	3	2
Development	3	4	5	3	4	5	2	3	4	4	5	4	4	5	4	5	3	4	4	3	4	4	3	4	4	3	2	4	3	5	3	3	4	4	4	3	3	3
Development	3	5	4	4	5	5	1	3	3	3	5	4	4	4	2	4	4	5	4	4	5	4	5	2	5	4	3	3	2	5	4	4	3	4	3	3	3	4
Development	3	5	5	4	4	3	2	3	3	4	5	4	5	4	3	4	4	5	5	4	3	3	3	1	3	3	1	5	3	5	5	4	5	5	5	5	4	4
Testing	5	5	4	4	5	5	3	5	5	5	5	5	5	5	5	5	5	5	5	5	5	5	4	5	4	4	4	4	4	5	5	3	5	4	4	4	4	4
Development	3	3	3	3	3	5	3	1	1	3	3	3	3	3	3	3	3	3	3	3	3	3	3	3	3	3	3	3	3	3	3	3	3	3	3	3	3	3
Development	2	4	5	2	4	5	1	3	2	5	2	5	5	5	1	5	5	5	5	1	1	5	5	3	1	1	1	1	1	5	1	1	2	5	1	5	5	1
Development	4	5	5	4	5	4	2	3	1	4	5	4	4	4	1	4	4	5	5	3	4	5	4	4	4	3	2	2	1	4	2	4	4	5	5	5	3	4
Development	4	4	4	5	5	5	2	3	4	4	4	5	5	5	3	4	5	5	5	3	4	5	4	4	4	4	3	4	5	5	4	4	4	4	4	4	4	4
Testing	4	4	5	3	5	3	3	3	3	5	4	4	4	5	4	5	4	4	4	3	3	5	4	3	3	3	3	3	3	5	4	4	5	4	4	4	3	4
Development	2	4	5	2	4	1	1	2	2	5	4	5	5	4	1	5	5	5	5	3	5	4	4	5	5	5	1	2	5	5	3	5	4	4	5	5	1	4
Development	5	4	3	3	5	5	2	2	3	5	5	4	5	5	3	4	5	4	5	4	4	4	5	4	5	4	3	3	4	5	4	4	4	5	5	4	4	3
Development	3	4	4	4	5	5	2	4	2	4	5	5	5	5	3	5	5	5	5	3	4	4	4	5	4	4	4	4	3	5	3	3	3	3	3	3	3	3
Development	3	4	4	3	5	4	1	2	3	5	4	3	3	5	3	4	4	5	4	4	4	5	4	3	4	2	2	2	3	5	4	3	3	4	4	4	3	3
Development	3	3	3	3	3	3	3	3	3	3	3	3	3	3	3	3	3	3	3	3	3	3	3	3	3	3	3	3	3	3	3	3	3	3	3	3	3	3
Development	3	5	4	3	4	4	2	3	3	4	4	4	4	4	3	4	5	4	5	3	3	2	5	3	2	4	3	4	4	5	4	3	4	5	5	5	4	5
Development	4	3	4	2	5	5	2	3	4	5	4	4	5	4	2	5	4	5	5	2	4	4	5	4	4	4	1	2	5	5	4	3	5	4	4	3	4	3
Development	2	3	4	2	3	3	1	3	1	3	3	2	4	3	1	2	3	5	5	1	1	3	2	2	3	3	1	1	1	5	2	2	5	4	5	3	3	4
Development	3	2	5	4	5	3	1	3	2	5	5	5	5	5	2	4	4	5	3	2	3	4	4	5	3	3	2	2	4	2	3	1	5	5	3	3	3	2
Development	5	5	4	3	4	5	4	4	2	4	4	5	5	4	2	4	5	4	3	2	4	5	5	5	5	5	3	5	3	4	2	1	5	4	4	4	2	5
Development	4	5	4	2	4	3	1	3	3	4	4	2	2	4	1	5	4	5	5	4	3	4	4	3	4	5	1	1	2	5	4	3	5	5	4	4	4	4
Development	2	3	5	4	5	4	2	3	3	4	4	4	5	5	3	3	3	4	5	2	2	4	4	3	3	4	2	4	4	5	5	2	2	5	4	3	2	1
Development	5	4	3	3	4	4	3	4	4	3	4	5	5	5	4	5	5	5	5	4	4	4	5	5	4	4	3	3	4	5	5	3	5	5	4	4	4	4
Development	5	4	4	4	5	4	3	3	3	4	5	4	4	4	4	5	5	5	4	5	4	5	4	4	4	4	2	3	4	5	5	3	4	4	5	4	3	4
Development	3	2	1	1	4	4	2	4	3	5	4	4	3	5	2	4	4	5	5	4	3	4	4	2	3	3	3	4	3	5	2	2	4	5	5	5	3	2
Development	5	4	5	3	4	3	3	3	3	4	3	4	4	3	4	4	4	5	5	5	3	3	3	2	3	4	2	2	3	4	4	5	4	4	4	4	4	4
Development	5	4	4	4	5	4	3	4	4	5	4	4	4	4	3	4	4	4	4	4	4	5	4	4	5	4	3	3	3	5	5	3	4	4	3	3	5	5
Development	4	5	3	4	4	4	3	3	3	4	4	4	4	4	3	4	4	5	4	3	4	4	5	4	4	4	2	3	3	4	4	3	5	4	4	4	3	3
Development	5	4	5	3	5	3	2	1	2	3	4	3	4	5	2	5	5	4	3	2	5	5	4	2	1	3	2	2	3	5	3	3	5	5	4	4	3	2
Development	4	4	5	3	5	4	1	3	4	4	4	5	5	5	4	4	4	5	5	5	5	3	5	4	3	4	3	3	3	5	5	5	4	5	5	4	3	4
Development	4	4	5	3	5	4	2	2	2	5	5	5	5	5	4	5	5	5	5	3	3	5	5	5	5	5	1	1	5	5	3	3	4	5	5	5	4	4
Management	4	2	4	2	5	5	2	2	3	4	5	4	3	3	2	4	4	5	3	3	3	3	3	3	4	4	1	2	2	5	4	4	4	4	3	3	3	3
Development	5	4	3	4	5	4	2	2	2	5	5	5	5	5	3	5	5	5	3	5	5	5	5	4	4	4	2	2	4	5	4	3	5	5	5	5	4	4
Development	4	5	2	4	2	4	2	2	2	2	2	4	4	5	2	4	4	5	5	4	4	4	4	4	4	4	1	3	2	5	4	4	4	2	2	2	2	2
Development	4	3	5	2	4	4	3	5	3	5	4	4	4	5	5	5	4	4	5	4	3	3	3	2	4	3	2	2	4	5	4	3	4	4	3	3	4	3
Development	3	5	2	5	4	5	2	4	4	3	4	3	4	4	2	3	5	4	5	3	5	4	5	5	5	5	2	5	4	5	4	5	5	2	4	4	2	4
Testing	4	5	3	4	5	5	3	3	2	4	4	5	5	4	3	3	4	4	3	2	4	4	4	5	4	4	4	4	3	5	4	3	5	3	4	4	4	5
Development	3	5	4	3	5	2	2	3	2	5	3	5	3	4	5	5	5	4	4	4	4	3	3	2	4	5	2	4	2	4	2	2	4	4	3	2	3	4
Management	5	4	5	3	5	3	1	5	3	5	4	4	4	5	3	5	5	5	5	4	4	3	3	4	5	4	1	4	2	5	4	5	5	5	5	4	4	3
Development	5	5	4	4	4	4	1	3	3	5	4	4	5	5	4	5	5	4	5	4	5	5	4	4	5	5	4	4	4	5	4	4	5	5	4	4	4	5
Development	3	4	5	4	5	4	2	4	3	5	5	4	4	5	4	4	4	4	4	4	4	4	4	4	4	4	2	4	4	5	4	4	4	5	4	4	4	4
Development	4	4	5	4	4	5	3	3	3	5	4	5	5	4	4	4	4	5	5	2	3	4	3	4	5	5	4	4	3	4	3	3	5	3	3	3	3	5
Development	4	4	4	3	4	3	1	3	2	4	5	5	5	5	4	4	5	5	5	4	5	3	4	4	4	4	2	2	3	5	5	4	5	5	5	4	4	2
Testing	5	4	5	4	5	5	2	2	4	4	4	5	4	5	2	4	5	5	4	3	3	4	4	4	5	4	3	3	3	5	3	3	4	5	5	5	4	4
Management	5	4	4	3	4	3	1	1	1	3	4	4	5	5	1	3	4	5	5	4	4	4	4	3	4	4	2	2	3	5	4	2	4	4	3	3	5	4
Development	4	4	4	3	5	4	3	3	3	4	5	4	4	5	4	4	3	3	3	3	4	4	3	3	4	4	3	4	4	5	4	4	4	4	4	4	3	4
Development	1	3	3	3	5	1	1	1	1	3	3	3	3	3	3	1	3	3	3	3	3	1	1	1	1	1	1	1	2	2	1	1	2	2	2	2	1	1
Development	5	1	5	1	4	4	2	2	1	3	5	3	3	3	3	3	4	5	5	3	4	3	4	5	4	4	2	4	5	5	5	3	3	4	4	4	2	2
Development	4	3	2	3	5	4	1	2	1	4	1	5	5	5	3	5	5	5	5	4	4	4	5	5	5	5	1	1	4	5	4	3	4	3	2	2	3	4
Development	5	3	5	3	5	4	2	3	3	4	5	5	5	5	2	4	4	5	5	4	4	4	4	5	5	5	1	2	3	5	4	3	5	5	5	5	4	4
Management	4	5	3	4	4	5	1	3	4	4	4	5	5	5	3	4	5	5	4	4	4	5	4	4	5	5	4	4	5	5	4	4	4	4	4	4	3	4
Development	5	4	5	4	5	4	2	3	3	3	5	4	5	5	4	5	5	5	4	4	4	3	5	3	4	4	2	4	3	5	4	4	5	5	5	5	4	4
Development	5	4	4	4	2	4	2	2	3	4	4	5	5	5	3	4	5	4	3	4	3	5	3	4	4	4	2	3	4	5	5	3	4	3	3	4	4	4
Management	4	4	5	3	5	4	3	4	4	5	4	3	3	4	2	3	4	5	4	2	3	3	4	3	4	4	1	3	4	5	5	5	3	5	4	4	5	4
Development	5	4	4	3	5	5	3	3	1	5	5	5	5	5	1	4	5	5	5	1	3	3	4	3	2	2	2	2	2	4	2	2	4	4	3	3	2	4
Development	3	4	2	4	3	3	2	4	3	4	3	5	5	4	2	4	4	3	4	4	4	3	4	2	2	3	2	2	4	5	3	3	5	2	2	2	4	4
Development	5	4	3	5	5	4	3	2	2	5	5	5	5	4	4	5	5	5	5	3	5	2	3	4	5	5	5	3	4	5	4	5	3	5	5	5	2	2
Development	3	4	5	3	5	4	3	4	2	3	4	4	4	5	3	4	5	5	5	3	5	4	5	4	4	4	2	2	4	5	4	4	4	4	4	4	3	4
Development	5	5	5	2	5	4	2	3	1	5	3	4	4	5	4	5	4	4	4	2	3	5	4	3	4	4	4	2	1	4	4	2	4	2	4	4	3	3
Development	3	4	5	3	4	4	2	3	3	3	3	4	4	4	2	3	4	5	4	5	4	4	4	4	4	3	2	3	3	5	5	5	4	3	3	3	3	3
Development	3	4	4	5	5	3	1	1	3	5	5	5	5	5	5	4	4	4	4	5	5	2	4	3	2	1	1	2	2	3	1	4	2	4	5	5	1	4
Development	5	5	5	4	4	4	4	5	3	5	4	4	2	4	2	5	4	5	5	5	4	4	5	2	3	4	2	2	2	5	5	2	5	4	4	4	2	2
Development	4	3	5	3	5	4	1	3	3	4	5	5	5	4	4	5	5	5	5	4	4	4	5	3	4	4	2	3	3	4	4	4	4	3	3	3	3	3
Development	5	4	5	3	5	5	3	2	4	5	5	5	5	5	2	3	3	5	5	2	4	5	4	4	5	5	3	3	5	5	5	3	5	5	5	5	4	4
Development	4	5	4	3	4	4	1	2	2	3	4	4	4	4	4	5	4	4	4	1	3	4	4	3	3	3	1	2	2	3	3	3	4	4	4	3	3	2
Development	3	2	4	3	5	3	2	4	3	5	5	4	4	4	1	3	4	4	5	3	3	5	3	2	3	3	2	3	2	5	5	4	4	4	5	3	2	3
Development	4	4	4	3	4	4	4	3	3	5	5	3	4	5	4	3	4	4	3	3	3	2	3	2	3	2	2	2	3	5	3	3	3	4	4	3	2	3
Development	3	4	5	3	5	4	1	1	3	5	5	5	5	5	1	4	5	5	5	4	3	3	4	4	4	3	2	4	3	5	4	4	4	5	5	4	2	5
Development	4	4	4	4	5	4	2	3	3	4	3	4	5	4	4	4	4	4	4	4	4	4	4	4	3	4	3	3	3	5	5	4	4	4	4	4	4	4
Development	3	5	5	3	2	4	1	1	3	3	5	4	4	5	1	5	4	5	3	4	5	3	4	4	4	4	2	2	3	5	1	3	4	5	4	3	1	2
Development	2	3	4	5	4	5	2	3	3	3	4	4	5	4	3	5	4	5	5	2	3	3	4	3	5	4	2	1	2	5	4	4	4	3	3	4	3	4
Development	2	2	5	3	5	5	1	3	2	5	4	3	3	5	1	2	3	5	5	3	3	3	4	2	4	4	1	1	1	4	3	3	4	4	4	4	3	4
Development	5	4	5	3	5	5	1	2	3	5	4	4	4	4	2	4	4	4	5	4	4	4	4	4	4	4	3	3	5	5	5	4	4	4	4	4	3	3
Development	4	4	4	4	5	4	2	2	2	4	3	4	5	5	3	3	3	4	3	3	3	5	5	3	5	5	1	3	4	5	3	2	4	3	3	3	5	4
Development	4	4	4	4	5	4	2	2	2	5	4	5	5	5	4	5	4	5	5	3	5	4	5	5	4	4	2	2	3	5	5	4	4	5	5	5	4	4
Development	5	5	3	4	4	3	2	3	1	3	3	4	4	3	3	4	4	3	2	2	1	4	4	4	3	3	2	2	2	4	4	4	4	4	4	4	2	3
Development	5	4	3	2	5	3	1	4	3	5	5	5	5	5	3	4	4	5	5	4	5	4	3	4	4	4	1	3	2	5	3	3	4	4	3	3	4	4
Development	5	4	5	4	4	5	1	3	3	5	3	4	5	5	4	5	4	4	4	2	4	5	5	4	4	5	1	2	1	4	4	4	4	5	5	5	3	5
Development	4	3	3	4	4	3	1	2	2	5	4	4	5	5	3	4	4	5	4	4	4	5	4	4	3	3	3	4	3	5	4	3	5	3	3	3	4	3
Testing	3	5	5	2	4	4	1	4	2	5	5	4	4	5	5	5	5	5	5	5	5	5	5	5	5	5	4	4	4	5	4	5	5	5	5	5	5	5
Development	4	3	5	3	5	5	2	2	2	4	5	5	5	5	4	4	4	4	3	3	3	4	4	3	4	4	2	3	3	5	4	3	4	4	4	4	4	4
Testing	4	3	4	4	5	4	2	4	3	5	2	4	4	3	4	5	5	5	5	4	5	4	4	4	4	4	4	5	4	5	4	4	5	5	5	5	4	4
Development	5	5	3	4	3	4	2	4	4	5	4	5	4	5	4	4	5	5	4	5	4	4	4	4	4	4	3	3	4	4	3	3	5	4	4	4	3	3
Development	4	4	3	2	5	4	2	4	2	4	4	5	5	5	3	4	5	5	5	4	5	4	4	4	5	5	4	4	4	5	4	4	4	4	4	3	2	4
Testing	5	5	4	4	5	4	2	2	2	3	4	4	4	4	3	4	4	5	5	4	4	4	4	3	4	4	3	3	4	5	4	4	4	5	5	5	4	4
Development	5	4	4	2	4	5	1	2	2	4	4	4	4	4	4	4	4	5	4	4	4	3	4	2	3	3	2	2	5	5	4	3	3	3	3	3	3	3
Development	4	3	4	4	5	4	2	3	3	5	5	5	5	4	3	5	5	4	4	3	5	4	4	3	4	4	2	3	4	5	4	4	5	5	5	4	4	3
Development	4	2	3	1	4	3	1	4	2	5	5	3	4	4	4	4	5	5	4	4	4	3	3	4	3	4	3	1	5	5	4	3	4	2	2	2	4	2
Development	1	5	5	3	4	5	1	3	4	4	5	5	4	3	5	5	5	5	5	3	3	3	4	5	5	5	2	4	3	5	3	3	4	2	2	2	3	4
Development	4	3	5	4	5	4	2	4	4	4	4	5	3	4	4	4	5	4	5	5	5	4	5	5	4	4	3	4	3	5	5	5	5	4	5	4	5	5
Development	4	3	5	4	4	5	2	4	3	4	4	4	5	5	5	5	4	4	4	4	4	2	3	3	4	4	1	2	2	5	4	2	4	4	4	4	3	4
Testing	5	4	4	3	2	4	2	3	3	3	4	4	5	5	3	5	5	4	5	4	4	4	5	3	4	5	1	2	4	5	4	4	4	5	4	4	4	4
Development	5	3	5	3	4	5	1	5	1	4	5	5	5	5	1	5	5	5	4	3	3	4	5	5	4	5	4	5	5	5	5	4	5	5	5	5	5	5
Development	4	4	5	2	5	4	1	4	4	5	4	5	4	4	5	4	5	5	5	4	5	3	4	3	4	4	2	2	4	5	5	5	4	4	4	4	5	3
Development	4	3	4	3	4	2	2	3	2	4	4	3	3	4	2	4	4	4	4	2	2	3	4	2	3	4	2	4	4	4	4	3	3	4	4	4	4	3
Development	4	4	5	3	5	3	2	3	3	4	4	5	3	4	3	5	4	4	4	4	4	4	3	3	3	4	4	4	4	5	4	5	4	4	4	4	4	3
Development	5	3	4	2	5	3	1	3	3	5	5	4	4	5	1	5	4	5	5	3	4	5	4	3	4	4	1	1	5	5	3	3	5	5	3	4	4	2
Development	5	4	5	4	5	4	1	4	2	4	3	4	4	5	3	4	4	5	5	5	5	4	4	2	3	3	2	3	4	5	4	4	4	5	5	4	3	3
Development	5	4	4	3	4	3	2	4	2	4	4	4	4	4	2	4	4	4	4	3	3	4	4	4	3	4	3	3	4	4	4	4	4	4	4	4	3	4
Development	5	4	4	3	3	2	1	4	3	4	3	4	5	5	2	3	3	5	3	3	4	4	5	3	4	3	1	2	3	5	3	3	4	4	4	4	5	4
Testing	2	4	3	3	5	3	3	1	1	4	4	5	5	5	2	3	3	4	4	2	4	4	4	2	5	4	1	3	2	5	4	4	4	4	4	4	2	3
Management	4	4	4	3	5	5	2	2	2	4	4	4	4	4	3	3	4	5	5	1	3	5	4	3	5	5	1	2	3	5	3	2	5	4	3	3	2	5
Testing	4	4	5	3	5	4	2	4	2	4	4	5	5	5	3	5	5	5	4	4	5	4	5	3	4	4	1	2	3	5	5	5	5	4	4	4	4	4
Development	5	4	4	3	4	3	1	2	3	4	5	4	4	2	3	4	5	5	4	2	2	4	3	5	3	4	2	3	4	5	3	2	5	4	3	3	4	4
Development	5	5	5	3	5	4	2	2	1	5	5	5	5	5	5	5	5	5	5	3	3	4	5	3	3	3	2	4	3	5	4	4	4	5	5	5	4	4
Testing	2	2	2	1	5	4	1	2	1	5	5	5	5	5	4	5	5	5	5	3	4	5	5	4	5	3	1	1	4	5	3	2	4	5	5	5	3	4
Development	4	4	5	5	5	4	2	2	2	4	4	4	4	4	4	4	5	4	4	3	4	5	5	3	5	5	5	5	3	5	5	5	4	5	5	5	4	3
Development	5	4	4	2	4	4	1	3	4	3	4	5	5	5	4	5	5	5	5	4	4	3	4	4	5	5	2	3	2	5	4	5	5	4	4	4	4	4
Development	4	5	3	2	3	2	1	5	3	5	4	5	5	4	3	5	5	5	4	1	1	5	4	2	1	4	1	1	4	4	4	3	5	4	3	3	5	4
Development	3	5	5	4	5	4	3	3	3	4	5	5	4	5	3	4	4	5	5	4	4	5	5	4	4	4	3	4	4	5	5	4	4	5	5	5	3	5
Development	5	4	4	3	5	3	2	2	3	5	4	4	4	4	2	4	4	5	5	2	4	4	4	4	3	3	2	3	3	5	4	4	5	4	4	4	4	5
Development	3	3	3	3	1	2	2	2	2	5	5	5	5	5	2	5	5	5	4	4	4	5	4	4	3	3	4	4	3	5	3	3	5	2	2	2	3	3
Development	4	4	5	4	4	3	2	3	3	5	5	4	4	5	3	4	5	5	5	3	3	4	5	4	4	4	3	3	5	5	5	5	5	4	4	4	4	5
Development	5	4	4	3	4	4	3	5	4	5	5	5	5	5	4	4	4	4	5	4	4	4	5	4	5	5	3	3	4	5	3	4	4	5	5	5	4	4
Development	5	4	5	4	5	3	3	3	3	4	4	4	5	5	4	5	5	5	5	4	4	4	4	4	5	4	2	2	3	5	4	3	5	5	5	5	4	5
Development	5	5	4	3	3	5	2	5	3	5	5	5	5	5	3	3	4	5	5	5	4	4	3	4	5	3	3	4	3	5	5	3	5	5	5	5	4	3
Development	1	4	5	4	5	5	3	3	2	5	4	5	5	5	1	5	5	5	4	2	4	3	5	3	3	3	3	3	4	5	5	5	4	5	4	4	1	5
Management	5	4	5	3	5	5	3	3	4	5	5	5	5	5	2	4	4	5	5	3	3	4	5	4	5	5	3	4	5	5	4	5	5	5	5	5	4	4
Testing	4	2	5	4	5	4	3	3	1	4	4	4	3	5	3	5	4	5	5	3	4	3	3	4	4	4	3	4	3	5	4	3	4	5	4	5	4	5
Development	4	3	5	2	4	4	1	2	1	4	4	5	5	4	5	4	5	5	4	1	1	5	4	4	4	4	1	1	4	5	1	3	5	5	3	3	1	1
Testing	5	5	5	4	5	4	4	4	3	5	4	4	3	4	5	5	4	5	4	4	4	2	2	4	4	4	4	2	5	4	4	4	4	4	4	4	4	3
Testing	5	4	3	4	4	3	2	4	3	4	2	4	4	4	5	5	4	4	3	4	3	4	3	4	3	3	3	4	4	3	3	3	4	4	4	4	3	4
Development	4	4	4	3	4	4	4	4	4	5	4	5	5	5	4	5	5	3	4	5	4	5	4	4	5	4	4	5	4	4	5	4	4	5	4	5	4	5
Development	5	4	5	3	5	2	2	3	3	2	5	5	5	5	5	5	4	5	5	5	5	5	4	4	4	4	4	4	3	5	5	5	5	5	5	5	4	4
Development	5	3	4	5	4	3	3	4	3	4	4	4	4	4	3	5	5	5	5	5	5	4	3	4	4	4	2	4	2	5	2	3	5	5	5	5	4	4
Development	5	4	5	4	5	4	3	4	4	3	4	4	5	5	4	5	4	5	5	4	4	4	4	5	5	5	4	3	3	4	4	4	5	4	4	4	4	4
Development	1	1	1	1	1	1	4	2	1	5	4	3	2	5	3	4	5	4	4	4	4	4	4	4	4	4	4	4	4	4	4	4	4	4	3	4	4	4
Development	5	4	4	3	4	4	3	3	3	5	3	4	3	4	4	4	4	5	3	3	3	4	4	3	5	5	4	4	3	5	4	3	5	4	4	4	4	4
Testing	1	1	1	3	1	3	1	3	5	1	3	3	3	3	1	1	1	5	5	5	5	5	5	5	5	5	2	2	2	5	5	5	5	5	5	5	5	5
Development	5	4	5	3	3	4	1	4	4	5	5	5	5	5	5	5	5	5	5	5	5	4	4	4	4	4	4	4	4	4	4	4	4	4	4	4	4	4
Development	5	4	4	4	5	4	3	3	3	4	4	5	5	4	4	4	4	4	4	4	4	4	3	4	4	4	4	4	4	5	5	3	4	4	4	4	4	5
Development	4	3	4	4	4	4	5	4	4	4	4	5	5	4	4	3	4	4	4	5	5	4	4	4	5	5	4	4	3	4	5	4	5	4	4	4	5	5
Development	2	5	5	3	5	2	2	5	4	4	3	4	4	3	5	5	5	5	5	4	4	4	4	3	4	4	4	4	3	3	2	3	3	5	4	4	4	4
Development	4	2	5	4	5	1	1	3	3	4	5	5	5	4	2	4	4	5	4	4	4	4	4	2	4	5	2	2	3	5	4	4	5	4	4	4	4	4
Development	5	3	4	4	5	3	1	1	1	5	4	5	5	5	5	5	5	5	5	5	5	5	5	5	5	5	2	2	4	5	5	5	5	5	5	5	5	4
Development	4	4	3	4	5	4	4	5	4	4	2	3	3	4	5	5	3	5	5	5	5	4	3	3	4	4	3	3	3	4	3	3	4	4	4	4	4	4
Development	5	5	5	3	5	3	2	5	4	4	4	4	4	4	5	5	4	5	5	4	3	4	4	4	5	5	5	4	5	5	5	4	5	5	5	5	5	5
Development	5	5	5	4	5	4	4	5	4	5	4	4	5	5	5	4	5	5	4	4	4	5	4	4	5	5	5	5	5	4	4	4	5	5	5	5	4	5
